[
    "2016-02-16",
    "2016-03-16",
    "2016-04-16",
    "2016-05-16",
    "2016-06-16",
    "2016-07-16",
    "2016-08-16",
    "2016-09-16",
    "2016-10-16",
    "2016-11-16",
    "2017-01-17",
    "2017-02-17",
    "2017-03-17",
    "2017-04-17",
    "2017-05-17",
    "2017-06-17",
    "2017-07-17"
]